Academic Year,Campus Type,Campus,Undergraduate Certificates,Associate's Degrees,Bachelor's Degrees,Master's Degrees,Doctoral Research/Scholarship Degrees,Doctoral/Professional Practice Degrees, Graduate Certificates
2016-2017,1,Doctoral Degree Granting Institutions,42,44,18409,7868,1222,1480,637
2016-2017,2,Comprehensive Colleges,20,619,18963,2776,0,0,512
2016-2017,3,Technology Colleges,172,2752,3698,93,0,0,7
2016-2017,4,Community Colleges,2447,31467,1624,71,0,0,0
2015-2016,1,Doctoral Degree Granting Institutions,33,62,18399,7685,1214,1508,618
2015-2016,2,Comprehensive Colleges,28,690,19138,2913,0,0,508
2015-2016,3,Technology Colleges,194,2795,3623,50,0,0,7
2015-2016,4,Community Colleges,2467,32702,1611,83,0,0,0
2014-2015,1,Doctoral Degree Granting Institutions,18,51,17466,7782,1267,1491,578
2014-2015,2,Comprehensive Colleges,13,676,19313,2999,0,0,486
2014-2015,3,Technology Colleges,237,2956,3278,61,0,0,6
2014-2015,4,Community Colleges,2449,33382,1548,81,0,0,0
2013-2014,1,Doctoral Degree Granting Institutions,20,57,17369,7226,1263,1453,628
2013-2014,2,Comprehensive Colleges,20,529,19255,2980,0,0,381
2013-2014,3,Technology Colleges,197,2740,2975,69,0,0,0
2013-2014,4,Community Colleges,2474,33318,1510,73,0,0,0
2012-2013,1,Doctoral Degree Granting Institutions,18,47,17040,6959,1176,1494,516
2012-2013,2,Comprehensive Colleges,27,790,19048,3280,0,0,418
2012-2013,3,Technology Colleges,234,3052,2849,58,0,0,0
2012-2013,4,Community Colleges,2406,32714,1516,81,0,0,0
2011-2012,1,Doctoral Degree Granting Institutions,10,41,17625,7116,1180,1438,668
2011-2012,2,Comprehensive Colleges,24,680,18617,3528,0,0,423
2011-2012,3,Technology Colleges,309,3252,2332,74,0,0,0
2011-2012,4,Community Colleges,2365,32545,1531,69,0,0,0
2010-2011,1,Doctoral Degree Granting Institutions,14,45,16911,6986,1145,1462,648
2010-2011,2,Comprehensive Colleges,20,653,18075,3554,0,0,353
2010-2011,3,Technology Colleges,263,3168,2120,74,0,0,0
2010-2011,4,Community Colleges,2325,30825,1442,75,0,0,0
2009-2010,1,Doctoral Degree Granting Institutions,4,31,16492,6742,1110,1426,617
2009-2010,2,Comprehensive Colleges,13,587,17622,3518,0,0,361
2009-2010,3,Technology Colleges,195,3005,1790,67,0,0,0
2009-2010,4,Community Colleges,2230,28962,1264,72,0,0,0
2008-2009,1,Doctoral Degree Granting Institutions,35,33,15613,6462,1084,1454,563
2008-2009,2,Comprehensive Colleges,29,504,17131,3553,0,0,381
2008-2009,3,Technology Colleges,143,3023,1699,79,0,0,0
2008-2009,4,Community Colleges,1697,27190,1170,74,0,0,0
2007-2008,1,Doctoral Degree Granting Institutions,38,38,15261,6384,1164,1384,561
2007-2008,2,Comprehensive Colleges,19,618,16593,3555,0,0,284
2007-2008,3,Technology Colleges,227,2951,1479,46,0,0,0
2007-2008,4,Community Colleges,1678,26876,1121,60,0,0,0
2006-2007,1,Doctoral Degree Granting Institutions,32,28,14799,6202,1129,1346,524
2006-2007,2,Comprehensive Colleges,14,735,16909,3787,0,0,315
2006-2007,3,Technology Colleges,213,3160,1372,70,0,0,0
2006-2007,4,Community Colleges,1711,27158,1017,65,0,0,0
2005-2006,1,Doctoral Degree Granting Institutions,161,36,14716,6576,1078,1387,743
2005-2006,2,Comprehensive Colleges,16,654,16474,3843,0,0,430
2005-2006,3,Technology Colleges,249,3180,1157,65,0,0,0
2005-2006,4,Community Colleges,1478,27456,1070,44,0,0,0
2004-2005,1,Doctoral Degree Granting Institutions,186,43,14492,6664,1046,1334,662
2004-2005,2,Comprehensive Colleges,5,733,16088,3784,0,0,370
2004-2005,3,Technology Colleges,246,3179,1063,51,0,0,0
2004-2005,4,Community Colleges,1438,27021,968,2,0,0,0
2003-2004,1,Doctoral Degree Granting Institutions,0,33,13874,6593,952,1312,553
2003-2004,2,Comprehensive Colleges,16,569,15684,4603,0,0,441
2003-2004,3,Technology Colleges,178,3192,889,64,0,0,0
2003-2004,4,Community Colleges,1441,27030,1034,25,0,0,0
2002-2003,1,Doctoral Degree Granting Institutions,0,49,13729,6132,1008,1229,360
2002-2003,2,Comprehensive Colleges,15,550,15575,4064,0,0,436
2002-2003,3,Technology Colleges,165,3145,721,59,0,0,0
2002-2003,4,Community Colleges,1319,25874,926,13,0,0,0
